{
  "project_info": {
    "project_number": "514378338979",
    "firebase_url": "https://akoo-books.firebaseio.com",
    "project_id": "akoo-books",
    "storage_bucket": "akoo-books.appspot.com"
  },
  "client": [
    {
      "client_info": {
        "mobilesdk_app_id": "1:514378338979:android:4687429f4be5def5",
        "android_client_info": {
          "package_name": "com.akoobooks"
        }
      },
      "oauth_client": [
        {
          "client_id": "514378338979-5o9nop97qu3falu7n0tl932tp73jtt7s.apps.googleusercontent.com",
          "client_type": 3
        }
      ],
      "api_key": [
        {
          "current_key": "AIzaSyAZ99xUS_bCNW5SynMXegS-Kwq12QIpYVg"
        }
      ],
      "services": {
        "appinvite_service": {
          "other_platform_oauth_client": [
            {
              "client_id": "514378338979-5o9nop97qu3falu7n0tl932tp73jtt7s.apps.googleusercontent.com",
              "client_type": 3
            },
            {
              "client_id": "514378338979-4hgse56sm369r8lg8m1m0vijqefnp925.apps.googleusercontent.com",
              "client_type": 2,
              "ios_info": {
                "bundle_id": "com.akoobooks.akoobooks"
              }
            }
          ]
        }
      }
    }
  ],
  "configuration_version": "1"
}